(kicad_pcb (version 20211014) (generator pcbnew)

  (general
    (thickness 1.6)
  )

  (paper "A4")
  (layers
    (0 "F.Cu" signal)
    (31 "B.Cu" signal)
    (32 "B.Adhes" user "B.Adhesive")
    (33 "F.Adhes" user "F.Adhesive")
    (34 "B.Paste" user)
    (35 "F.Paste" user)
    (36 "B.SilkS" user "B.Silkscreen")
    (37 "F.SilkS" user "F.Silkscreen")
    (38 "B.Mask" user)
    (39 "F.Mask" user)
    (40 "Dwgs.User" user "User.Drawings")
    (41 "Cmts.User" user "User.Comments")
    (42 "Eco1.User" user "User.Eco1")
    (43 "Eco2.User" user "User.Eco2")
    (44 "Edge.Cuts" user)
    (45 "Margin" user)
    (46 "B.CrtYd" user "B.Courtyard")
    (47 "F.CrtYd" user "F.Courtyard")
    (48 "B.Fab" user)
    (49 "F.Fab" user)
    (50 "User.1" user)
    (51 "User.2" user)
    (52 "User.3" user)
    (53 "User.4" user)
    (54 "User.5" user)
    (55 "User.6" user)
    (56 "User.7" user)
    (57 "User.8" user)
    (58 "User.9" user)
  )

  (setup
    (stackup
      (layer "F.SilkS" (type "Top Silk Screen"))
      (layer "F.Paste" (type "Top Solder Paste"))
      (layer "F.Mask" (type "Top Solder Mask") (thickness 0.01))
      (layer "F.Cu" (type "copper") (thickness 0.035))
      (layer "dielectric 1" (type "core") (thickness 1.51) (material "FR4") (epsilon_r 4.5) (loss_tangent 0.02))
      (layer "B.Cu" (type "copper") (thickness 0.035))
      (layer "B.Mask" (type "Bottom Solder Mask") (thickness 0.01))
      (layer "B.Paste" (type "Bottom Solder Paste"))
      (layer "B.SilkS" (type "Bottom Silk Screen"))
      (copper_finish "None")
      (dielectric_constraints no)
    )
    (pad_to_mask_clearance 0)
    (pcbplotparams
      (layerselection 0x00010fc_ffffffff)
      (disableapertmacros false)
      (usegerberextensions false)
      (usegerberattributes true)
      (usegerberadvancedattributes true)
      (creategerberjobfile true)
      (svguseinch false)
      (svgprecision 6)
      (excludeedgelayer true)
      (plotframeref false)
      (viasonmask false)
      (mode 1)
      (useauxorigin false)
      (hpglpennumber 1)
      (hpglpenspeed 20)
      (hpglpendiameter 15.000000)
      (dxfpolygonmode true)
      (dxfimperialunits true)
      (dxfusepcbnewfont true)
      (psnegative false)
      (psa4output false)
      (plotreference true)
      (plotvalue true)
      (plotinvisibletext false)
      (sketchpadsonfab false)
      (subtractmaskfromsilk false)
      (outputformat 1)
      (mirror false)
      (drillshape 1)
      (scaleselection 1)
      (outputdirectory "")
    )
  )

  (net 0 "")
  (net 1 "VDD")
  (net 2 "/OUT")
  (net 3 "GND")
  (net 4 "unconnected-(U1-Pad1)")

  (footprint "Connector_PinHeader_2.54mm:PinHeader_1x03_P2.54mm_Vertical" (layer "F.Cu")
    (tedit 59FED5CC) (tstamp 9d63f2bd-f6fd-45c0-8ed3-9713f52accc2)
    (at 144.78 106.68 90)
    (descr "Through hole straight pin header, 1x03, 2.54mm pitch, single row")
    (tags "Through hole pin header THT 1x03 2.54mm single row")
    (property "Sheetfile" "sit1566-breakout.kicad_sch")
    (property "Sheetname" "")
    (path "/e5f1fb72-988b-4771-b489-595f372d7023")
    (attr through_hole)
    (fp_text reference "J1" (at 2.54 -0.635 180) (layer "F.SilkS") hide
      (effects (font (size 1 1) (thickness 0.15)))
      (tstamp 2c0e120e-d377-43dd-90e4-94f2ec84c0f9)
    )
    (fp_text value "Conn_01x03" (at 3.175 7.409993 90) (layer "F.Fab") hide
      (effects (font (size 1 1) (thickness 0.15)))
      (tstamp f834fc5f-7df5-400d-91cb-45508373c30b)
    )
    (fp_text user "${REFERENCE}" (at 0 2.54) (layer "F.Fab")
      (effects (font (size 1 1) (thickness 0.15)))
      (tstamp 1a4b41a5-70fa-4162-b849-9fd50e9bab4b)
    )
    (fp_line (start 1.8 -1.8) (end -1.8 -1.8) (layer "F.CrtYd") (width 0.05) (tstamp 217d39b9-009b-46be-839c-8f17e22bf1fe))
    (fp_line (start -1.8 -1.8) (end -1.8 6.85) (layer "F.CrtYd") (width 0.05) (tstamp 495cbd37-9bd9-429f-95fb-075928fa8f7d))
    (fp_line (start -1.8 6.85) (end 1.8 6.85) (layer "F.CrtYd") (width 0.05) (tstamp cdd6243b-2f88-48d1-abc1-de180940d69a))
    (fp_line (start 1.8 6.85) (end 1.8 -1.8) (layer "F.CrtYd") (width 0.05) (tstamp d43eb1ec-6b46-40b6-b0a4-a411e7003c2e))
    (fp_line (start 1.27 6.35) (end -1.27 6.35) (layer "F.Fab") (width 0.1) (tstamp 57aa5ae6-9a88-4b2a-9da6-3fdbd40560ee))
    (fp_line (start -1.27 6.35) (end -1.27 -0.635) (layer "F.Fab") (width 0.1) (tstamp aeb268e5-0dce-419a-972c-d1ef356af73e))
    (fp_line (start -0.635 -1.27) (end 1.27 -1.27) (layer "F.Fab") (width 0.1) (tstamp b0e8b36c-83cf-4d8d-823c-b2211d27d752))
    (fp_line (start -1.27 -0.635) (end -0.635 -1.27) (layer "F.Fab") (width 0.1) (tstamp e29092b9-d7d5-42c4-b55d-cc9c3a253114))
    (fp_line (start 1.27 -1.27) (end 1.27 6.35) (layer "F.Fab") (width 0.1) (tstamp ed04bab1-0641-4563-9c44-c8249857b7a2))
    (pad "1" thru_hole rect (at 0 0 90) (size 1.7 1.7) (drill 1) (layers *.Cu *.Mask)
      (net 1 "VDD") (pinfunction "Pin_1") (pintype "passive") (tstamp 3e608b4c-2e17-4f29-a933-cbe99ed321a6))
    (pad "2" thru_hole oval (at 0 2.54 90) (size 1.7 1.7) (drill 1) (layers *.Cu *.Mask)
      (net 2 "/OUT") (pinfunction "Pin_2") (pintype "passive") (tstamp 98895667-b2c8-49b8-aab2-06b313c9c60b))
    (pad "3" thru_hole oval (at 0 5.08 90) (size 1.7 1.7) (drill 1) (layers *.Cu *.Mask)
      (net 3 "GND") (pinfunction "Pin_3") (pintype "passive") (tstamp 149ea410-a1bc-40d7-8613-f00cbd775a1e))
    (model "${KICAD6_3DMODEL_DIR}/Connector_PinHeader_2.54mm.3dshapes/PinHeader_1x03_P2.54mm_Vertical.wrl"
      (offset (xyz 0 0 0))
      (scale (xyz 1 1 1))
      (rotate (xyz 0 0 0))
    )
  )

  (footprint "SiT1566:SiT1566" (layer "F.Cu")
    (tedit 0) (tstamp e086528e-eaf4-4cee-82d5-ec6f870e7607)
    (at 147.32 101.6 -90)
    (property "Sheetfile" "sit1566-breakout.kicad_sch")
    (property "Sheetname" "")
    (path "/fbbac4c0-80d4-4de6-9434-565dc3a44d3c")
    (solder_mask_margin 0.05)
    (attr smd)
    (fp_text reference "U1" (at 0 -2.286 unlocked) (layer "F.SilkS")
      (effects (font (size 1 1) (thickness 0.15)))
      (tstamp 78761f5c-9b5a-4f7c-9c67-bddc83e2c489)
    )
    (fp_text value "SIT1566AC-JV-XXE-32.768E" (at 0 5.08 unlocked) (layer "F.Fab") hide
      (effects (font (size 1 1) (thickness 0.15)))
      (tstamp 063987c6-a5de-4b30-8ccd-713cbc1e2eda)
    )
    (fp_text user "${REFERENCE}" (at -2.54 4.039997 unlocked) (layer "F.Fab") hide
      (effects (font (size 1 1) (thickness 0.15)))
      (tstamp d24f2f15-64aa-478d-92a1-0339c171cccf)
    )
    (fp_circle (center -0.57 -0.92) (end -0.47 -0.92) (layer "F.SilkS") (width 0) (fill solid) (tstamp 6c78d0c4-aba5-441f-b34a-6770a10b5bdb))
    (fp_rect (start -0.67 -1.02) (end 0.67 1.02) (layer "F.CrtYd") (width 0.05) (fill none) (tstamp bc3d27b8-dab5-4e49-b2ee-837714b6efd4))
    (fp_rect (start -0.42 -0.77) (end 0.42 0.77) (layer "F.Fab") (width 0.1) (fill none) (tstamp 6f38ca03-42ef-49df-b1c5-90435975d862))
    (pad "1" smd circle (at -0.205 -0.5 180) (size 0.25 0.25) (layers "F.Cu" "F.Paste" "F.Mask")
      (net 4 "unconnected-(U1-Pad1)") (pinfunction "NC") (pintype "no_connect") (tstamp 4ffdc322-7c71-4000-a67e-36f4e4ad8d92))
    (pad "2" smd circle (at -0.205 0.5 180) (size 0.25 0.25) (layers "F.Cu" "F.Paste" "F.Mask")
      (net 2 "/OUT") (pinfunction "OUT") (pintype "output") (tstamp 46d33cc9-a307-4c07-8699-c6c522ffaa0b))
    (pad "3" smd circle (at 0.205 0.5 180) (size 0.25 0.25) (layers "F.Cu" "F.Paste" "F.Mask")
      (net 1 "VDD") (pinfunction "VDD") (pintype "power_in") (tstamp 93bc4739-b702-4bb9-be12-e55023e66303))
    (pad "4" smd circle (at 0.205 -0.5 180) (size 0.25 0.25) (layers "F.Cu" "F.Paste" "F.Mask")
      (net 3 "GND") (pinfunction "GND") (pintype "power_in") (tstamp dc530249-6dc8-418b-a3e9-6b35cd4e0615))
  )

  (footprint "MountingHole:MountingHole_2.5mm_Pad" (layer "F.Cu")
    (tedit 56D1B4CB) (tstamp e2d63b67-70e0-4698-91ba-55364e7335ea)
    (at 147.32 97.79)
    (descr "Mounting Hole 2.5mm")
    (tags "mounting hole 2.5mm")
    (attr board_only exclude_from_pos_files exclude_from_bom)
    (fp_text reference "REF**" (at 0 -3.499993) (layer "F.SilkS") hide
      (effects (font (size 1 1) (thickness 0.15)))
      (tstamp 76e62c01-33b9-4f6c-80d4-62660adbe2d5)
    )
    (fp_text value "MountingHole_2.5mm_Pad" (at 0 3.5) (layer "F.Fab")
      (effects (font (size 1 1) (thickness 0.15)))
      (tstamp 0d8485af-f4e7-45da-b4bf-e8e2b9dbefec)
    )
    (fp_text user "${REFERENCE}" (at 0 0) (layer "F.Fab")
      (effects (font (size 1 1) (thickness 0.15)))
      (tstamp 30453134-d68a-40a6-b17f-b924ab2d38af)
    )
    (fp_circle (center 0 0) (end 2.5 0) (layer "Cmts.User") (width 0.15) (fill none) (tstamp 7da836ac-fd29-486e-b348-5ed4e790439e))
    (fp_circle (center 0 0) (end 2.75 0) (layer "F.CrtYd") (width 0.05) (fill none) (tstamp f20eac5e-f7dc-42cf-88ca-d76770142d97))
    (pad "1" thru_hole circle (at 0 0) (size 3.2 3.2) (drill 2.5) (layers *.Cu *.Mask) (tstamp 1d01bcc5-3bb4-4a3e-a93d-aaae88a72f0f))
  )

  (gr_poly
    (pts
      (xy 147.095125 100.173501)
      (xy 147.094117 100.173576)
      (xy 147.093115 100.173699)
      (xy 147.092119 100.17387)
      (xy 147.091132 100.174086)
      (xy 147.090153 100.174347)
      (xy 147.089186 100.174651)
      (xy 147.088231 100.174998)
      (xy 147.08729 100.175385)
      (xy 147.086365 100.175813)
      (xy 147.085456 100.176278)
      (xy 147.084566 100.176781)
      (xy 147.083696 100.17732)
      (xy 147.082847 100.177894)
      (xy 147.082021 100.178502)
      (xy 147.08122 100.179141)
      (xy 147.080444 100.179812)
      (xy 147.079696 100.180513)
      (xy 147.078976 100.181242)
      (xy 147.078287 100.181999)
      (xy 147.07763 100.182782)
      (xy 147.077007 100.183589)
      (xy 147.076418 100.184421)
      (xy 147.075865 100.185274)
      (xy 147.07535 100.186149)
      (xy 147.074875 100.187044)
      (xy 147.07444 100.187958)
      (xy 147.074048 100.188889)
      (xy 147.073699 100.189837)
      (xy 147.073396 100.190799)
      (xy 147.07314 100.191775)
      (xy 147.072932 100.192764)
      (xy 146.989191 100.642635)
      (xy 146.988979 100.643632)
      (xy 146.988722 100.644632)
      (xy 146.988078 100.646636)
      (xy 146.987271 100.648634)
      (xy 146.98631 100.650612)
      (xy 146.985207 100.652558)
      (xy 146.983975 100.654458)
      (xy 146.982623 100.6563)
      (xy 146.981164 100.65807)
      (xy 146.979608 100.659756)
      (xy 146.977968 100.661344)
      (xy 146.976253 100.662821)
      (xy 146.974475 100.664174)
      (xy 146.972647 100.665391)
      (xy 146.970778 100.666457)
      (xy 146.969832 100.66693)
      (xy 146.968881 100.667361)
      (xy 146.967925 100.667747)
      (xy 146.966966 100.668088)
      (xy 146.665447 100.791516)
      (xy 146.663574 100.792341)
      (xy 146.661587 100.79303)
      (xy 146.659504 100.793584)
      (xy 146.657344 100.794004)
      (xy 146.655122 100.794293)
      (xy 146.652856 100.79445)
      (xy 146.650565 100.794478)
      (xy 146.648265 100.794377)
      (xy 146.645975 100.794149)
      (xy 146.64371 100.793794)
      (xy 146.64149 100.793314)
      (xy 146.639331 100.792711)
      (xy 146.637251 100.791984)
      (xy 146.635268 100.791137)
      (xy 146.633398 100.790169)
      (xy 146.63166 100.789082)
      (xy 146.255819 100.531166)
      (xy 146.254972 100.530615)
      (xy 146.2541 100.530106)
      (xy 146.253206 100.52964)
      (xy 146.25229 100.529217)
      (xy 146.251354 100.528836)
      (xy 146.250401 100.528498)
      (xy 146.249433 100.528201)
      (xy 146.248451 100.527947)
      (xy 146.247458 100.527734)
      (xy 146.246455 100.527562)
      (xy 146.244426 100.527343)
      (xy 146.242382 100.527288)
      (xy 146.240337 100.527396)
      (xy 146.238307 100.527665)
      (xy 146.236307 100.528093)
      (xy 146.234351 100.528681)
      (xy 146.233395 100.529033)
      (xy 146.232456 100.529425)
      (xy 146.231537 100.529855)
      (xy 146.230637 100.530325)
      (xy 146.229761 100.530833)
      (xy 146.22891 100.531379)
      (xy 146.228085 100.531963)
      (xy 146.227288 100.532586)
      (xy 146.226522 100.533246)
      (xy 146.225788 100.533944)
      (xy 145.909268 100.850465)
      (xy 145.90857 100.851199)
      (xy 145.90791 100.851965)
      (xy 145.907288 100.852762)
      (xy 145.906704 100.853588)
      (xy 145.906159 100.85444)
      (xy 145.905653 100.855317)
      (xy 145.904756 100.857137)
      (xy 145.904015 100.859034)
      (xy 145.903431 100.860992)
      (xy 145.903005 100.862995)
      (xy 145.902739 100.865027)
      (xy 145.902633 100.867075)
      (xy 145.90269 100.869121)
      (xy 145.902909 100.871152)
      (xy 145.903292 100.87315)
      (xy 145.903841 100.875102)
      (xy 145.904177 100.876056)
      (xy 145.904556 100.876992)
      (xy 145.904976 100.877908)
      (xy 145.905438 100.878803)
      (xy 145.905943 100.879675)
      (xy 145.906489 100.880522)
      (xy 146.159907 101.24988)
      (xy 146.160997 101.251626)
      (xy 146.161965 101.253499)
      (xy 146.162808 101.255482)
      (xy 146.163527 101.257557)
      (xy 146.16412 101.259708)
      (xy 146.164586 101.261918)
      (xy 146.164924 101.26417)
      (xy 146.165133 101.266447)
      (xy 146.165212 101.268731)
      (xy 146.165159 101.271006)
      (xy 146.164974 101.273255)
      (xy 146.164655 101.27546)
      (xy 146.164202 101.277605)
      (xy 146.163613 101.279673)
      (xy 146.162887 101.281647)
      (xy 146.162024 101.283509)
      (xy 146.0287 101.594553)
      (xy 146.027939 101.596463)
      (xy 146.027003 101.598355)
      (xy 146.025905 101.600219)
      (xy 146.024659 101.602043)
      (xy 146.023278 101.603815)
      (xy 146.021776 101.605525)
      (xy 146.020164 101.607161)
      (xy 146.018458 101.608712)
      (xy 146.016669 101.610166)
      (xy 146.014811 101.611512)
      (xy 146.012898 101.61274)
      (xy 146.010942 101.613837)
      (xy 146.008956 101.614793)
      (xy 146.006955 101.615596)
      (xy 146.004951 101.616235)
      (xy 146.002957 101.616699)
      (xy 145.568008 101.697582)
      (xy 145.567022 101.697794)
      (xy 145.566048 101.698055)
      (xy 145.565087 101.698362)
      (xy 145.564142 101.698714)
      (xy 145.563213 101.69911)
      (xy 145.562301 101.699547)
      (xy 145.561407 101.700025)
      (xy 145.560534 101.700542)
      (xy 145.558852 101.701687)
      (xy 145.557264 101.702971)
      (xy 145.555781 101.704381)
      (xy 145.554412 101.705906)
      (xy 145.553167 101.707534)
      (xy 145.552057 101.709254)
      (xy 145.551091 101.711054)
      (xy 145.550665 101.71198)
      (xy 145.550279 101.712922)
      (xy 145.549934 101.713878)
      (xy 145.549631 101.714846)
      (xy 145.549372 101.715826)
      (xy 145.549158 101.716815)
      (xy 145.548989 101.717812)
      (xy 145.548868 101.718816)
      (xy 145.548796 101.719825)
      (xy 145.548773 101.720838)
      (xy 145.548826 102.168487)
      (xy 145.548851 102.169498)
      (xy 145.548926 102.170506)
      (xy 145.54905 102.171509)
      (xy 145.54922 102.172505)
      (xy 145.549437 102.173494)
      (xy 145.549699 102.174474)
      (xy 145.550004 102.175443)
      (xy 145.550351 102.176399)
      (xy 145.55074 102.177342)
      (xy 145.551168 102.178269)
      (xy 145.551634 102.17918)
      (xy 145.552138 102.180072)
      (xy 145.552678 102.180944)
      (xy 145.553253 102.181795)
      (xy 145.553861 102.182623)
      (xy 145.554501 102.183426)
      (xy 145.555172 102.184203)
      (xy 145.555874 102.184953)
      (xy 145.556603 102.185674)
      (xy 145.55736 102.186365)
      (xy 145.558143 102.187023)
      (xy 145.558951 102.187648)
      (xy 145.559782 102.188238)
      (xy 145.560635 102.188791)
      (xy 145.56151 102.189306)
      (xy 145.562404 102.189781)
      (xy 145.563317 102.190216)
      (xy 145.564247 102.190607)
      (xy 145.565193 102.190955)
      (xy 145.566153 102.191257)
      (xy 145.567127 102.191511)
      (xy 145.568114 102.191717)
      (xy 145.992373 102.270669)
      (xy 145.993372 102.270874)
      (xy 145.994373 102.271125)
      (xy 145.995374 102.271421)
      (xy 145.996375 102.27176)
      (xy 145.998366 102.272563)
      (xy 146.000334 102.273522)
      (xy 146.002267 102.274625)
      (xy 146.004151 102.275861)
      (xy 146.005973 102.277219)
      (xy 146.007722 102.278686)
      (xy 146.009385 102.280251)
      (xy 146.010948 102.281903)
      (xy 146.012399 102.283629)
      (xy 146.013726 102.285418)
      (xy 146.014916 102.287259)
      (xy 146.015956 102.289139)
      (xy 146.016833 102.291048)
      (xy 146.017207 102.292009)
      (xy 146.017535 102.292973)
      (xy 146.149985 102.623835)
      (xy 146.150805 102.625717)
      (xy 146.151488 102.62771)
      (xy 146.152036 102.629797)
      (xy 146.152451 102.63196)
      (xy 146.152733 102.634183)
      (xy 146.152884 102.636448)
      (xy 146.152906 102.638738)
      (xy 146.1528 102.641036)
      (xy 146.152567 102.643324)
      (xy 146.152208 102.645585)
      (xy 146.151726 102.647802)
      (xy 146.15112 102.649958)
      (xy 146.150394 102.652035)
      (xy 146.149547 102.654016)
      (xy 146.148581 102.655884)
      (xy 146.147498 102.657622)
      (xy 145.906489 103.008804)
      (xy 145.905938 103.00965)
      (xy 145.905429 103.010523)
      (xy 145.904964 103.011418)
      (xy 145.90454 103.012335)
      (xy 145.90416 103.013272)
      (xy 145.903821 103.014226)
      (xy 145.903524 103.015196)
      (xy 145.90327 103.016179)
      (xy 145.903057 103.017175)
      (xy 145.902885 103.01818)
      (xy 145.902666 103.020213)
      (xy 145.902611 103.022262)
      (xy 145.902719 103.024312)
      (xy 145.902988 103.026347)
      (xy 145.903417 103.028352)
      (xy 145.904004 103.030312)
      (xy 145.904357 103.03127)
      (xy 145.904748 103.032211)
      (xy 145.905179 103.033132)
      (xy 145.905648 103.034033)
      (xy 145.906156 103.034911)
      (xy 145.906702 103.035763)
      (xy 145.907287 103.036589)
      (xy 145.907909 103.037387)
      (xy 145.90857 103.038153)
      (xy 145.909268 103.038887)
      (xy 146.225842 103.355408)
      (xy 146.226571 103.356101)
      (xy 146.227332 103.356757)
      (xy 146.228125 103.357375)
      (xy 146.228947 103.357956)
      (xy 146.229797 103.358499)
      (xy 146.230671 103.359003)
      (xy 146.232487 103.359897)
      (xy 146.234381 103.360637)
      (xy 146.236336 103.361221)
      (xy 146.238338 103.361648)
      (xy 146.24037 103.361917)
      (xy 146.242418 103.362025)
      (xy 146.244465 103.361972)
      (xy 146.246497 103.361756)
      (xy 146.248497 103.361376)
      (xy 146.25045 103.36083)
      (xy 146.251404 103.360495)
      (xy 146.25234 103.360118)
      (xy 146.253257 103.359698)
      (xy 146.254153 103.359237)
      (xy 146.255025 103.358733)
      (xy 146.255872 103.358186)
      (xy 146.600862 103.12141)
      (xy 146.602596 103.120331)
      (xy 146.604453 103.119384)
      (xy 146.606417 103.118571)
      (xy 146.60847 103.117891)
      (xy 146.610596 103.117346)
      (xy 146.612777 103.116934)
      (xy 146.614998 103.116658)
      (xy 146.61724 103.116516)
      (xy 146.619487 103.116509)
      (xy 146.621722 103.116638)
      (xy 146.623928 103.116902)
      (xy 146.626088 103.117303)
      (xy 146.628186 103.11784)
      (xy 146.630204 103.118514)
      (xy 146.632126 103.119325)
      (xy 146.633935 103.120273)
      (xy 146.78607 103.2015)
      (xy 146.78698 103.201932)
      (xy 146.787897 103.202313)
      (xy 146.78882 103.202641)
      (xy 146.789748 103.202919)
      (xy 146.790678 103.203145)
      (xy 146.79161 103.203322)
      (xy 146.792541 103.20345)
      (xy 146.793471 103.203529)
      (xy 146.794397 103.203559)
      (xy 146.795317 103.203542)
      (xy 146.796231 103.203478)
      (xy 146.797137 103.203368)
      (xy 146.798033 103.203211)
      (xy 146.798917 103.203009)
      (xy 146.799789 103.202763)
      (xy 146.800646 103.202472)
      (xy 146.801486 103.202138)
      (xy 146.802309 103.201761)
      (xy 146.803112 103.201341)
      (xy 146.803895 103.20088)
      (xy 146.804655 103.200377)
      (xy 146.805391 103.199834)
      (xy 146.806101 103.19925)
      (xy 146.806783 103.198627)
      (xy 146.807437 103.197966)
      (xy 146.808061 103.197266)
      (xy 146.808652 103.196528)
      (xy 146.80921 103.195753)
      (xy 146.809733 103.194941)
      (xy 146.810218 103.194093)
      (xy 146.810666 103.19321)
      (xy 146.811073 103.192292)
      (xy 147.124737 102.434314)
      (xy 147.1251 102.433371)
      (xy 147.125414 102.432414)
      (xy 147.125682 102.431444)
      (xy 147.125902 102.430464)
      (xy 147.126076 102.429474)
      (xy 147.126204 102.428478)
      (xy 147.126288 102.427476)
      (xy 147.126327 102.426471)
      (xy 147.126322 102.425464)
      (xy 147.126274 102.424457)
      (xy 147.126184 102.423452)
      (xy 147.126051 102.422451)
      (xy 147.125878 102.421455)
      (xy 147.125663 102.420466)
      (xy 147.125408 102.419487)
      (xy 147.125114 102.418518)
      (xy 147.124781 102.417563)
      (xy 147.124409 102.416621)
      (xy 147.124 102.415696)
      (xy 147.123554 102.41479)
      (xy 147.123071 102.413903)
      (xy 147.122553 102.413037)
      (xy 147.121999 102.412196)
      (xy 147.121411 102.41138)
      (xy 147.120788 102.41059)
      (xy 147.120132 102.40983)
      (xy 147.119444 102.409101)
      (xy 147.118723 102.408404)
      (xy 147.11797 102.407741)
      (xy 147.117187 102.407114)
      (xy 147.116373 102.406526)
      (xy 147.115529 102.405977)
      (xy 147.077456 102.382667)
      (xy 147.074716 102.380922)
      (xy 147.07179 102.37893)
      (xy 147.068734 102.376735)
      (xy 147.065603 102.374379)
      (xy 147.062452 102.371907)
      (xy 147.059336 102.369362)
      (xy 147.056311 102.366787)
      (xy 147.053432 102.364226)
      (xy 147.028228 102.346974)
      (xy 147.004174 102.328243)
      (xy 146.981336 102.308098)
      (xy 146.95978 102.286604)
      (xy 146.939571 102.263826)
      (xy 146.920775 102.23983)
      (xy 146.903457 102.21468)
      (xy 146.887684 102.188443)
      (xy 146.87352 102.161184)
      (xy 146.861032 102.132967)
      (xy 146.850285 102.103858)
      (xy 146.841344 102.073922)
      (xy 146.834276 102.043225)
      (xy 146.829147 102.011831)
      (xy 146.826021 101.979806)
      (xy 146.824964 101.947216)
      (xy 146.825608 101.92174)
      (xy 146.82752 101.896598)
      (xy 146.830668 101.871822)
      (xy 146.835022 101.847442)
      (xy 146.84055 101.823491)
      (xy 146.847221 101.799998)
      (xy 146.855003 101.776995)
      (xy 146.863867 101.754514)
      (xy 146.873781 101.732584)
      (xy 146.884714 101.711238)
      (xy 146.896634 101.690506)
      (xy 146.90951 101.67042)
      (xy 146.923312 101.651011)
      (xy 146.938008 101.632309)
      (xy 146.953568 101.614346)
      (xy 146.969959 101.597153)
      (xy 146.987151 101.580761)
      (xy 147.005114 101.565201)
      (xy 147.023815 101.550504)
      (xy 147.043223 101.536702)
      (xy 147.063309 101.523825)
      (xy 147.084039 101.511905)
      (xy 147.105384 101.500972)
      (xy 147.127312 101.491058)
      (xy 147.149792 101.482194)
      (xy 147.172794 101.474411)
      (xy 147.196285 101.46774)
      (xy 147.220234 101.462212)
      (xy 147.244612 101.457858)
      (xy 147.269386 101.45471)
      (xy 147.294526 101.452798)
      (xy 147.319999 101.452154)
      (xy 147.345473 101.452798)
      (xy 147.370613 101.45471)
      (xy 147.395388 101.457858)
      (xy 147.419766 101.462212)
      (xy 147.443716 101.46774)
      (xy 147.467208 101.474411)
      (xy 147.49021 101.482194)
      (xy 147.512691 101.491058)
      (xy 147.53462 101.500972)
      (xy 147.555966 101.511905)
      (xy 147.576698 101.523825)
      (xy 147.596784 101.536702)
      (xy 147.616194 101.550504)
      (xy 147.634896 101.565201)
      (xy 147.652859 101.580761)
      (xy 147.670053 101.597153)
      (xy 147.686446 101.614346)
      (xy 147.702006 101.632309)
      (xy 147.716704 101.651011)
      (xy 147.730507 101.67042)
      (xy 147.743385 101.690506)
      (xy 147.755306 101.711238)
      (xy 147.766239 101.732584)
      (xy 147.776154 101.754514)
      (xy 147.785019 101.776995)
      (xy 147.792802 101.799998)
      (xy 147.799474 101.823491)
      (xy 147.805003 101.847442)
      (xy 147.809357 101.871822)
      (xy 147.812505 101.896598)
      (xy 147.814417 101.92174)
      (xy 147.815061 101.947216)
      (xy 147.814796 101.963578)
      (xy 147.814004 101.979806)
      (xy 147.812696 101.995893)
      (xy 147.810878 102.011831)
      (xy 147.808559 102.027611)
      (xy 147.805747 102.043225)
      (xy 147.80245 102.058664)
      (xy 147.798677 102.073922)
      (xy 147.794436 102.088989)
      (xy 147.789735 102.103858)
      (xy 147.784583 102.11852)
      (xy 147.778987 102.132967)
      (xy 147.772955 102.147191)
      (xy 147.766497 102.161184)
      (xy 147.752332 102.188443)
      (xy 147.736557 102.214681)
      (xy 147.719239 102.23983)
      (xy 147.700443 102.263826)
      (xy 147.680234 102.286604)
      (xy 147.658679 102.308098)
      (xy 147.635844 102.328243)
      (xy 147.611793 102.346974)
      (xy 147.586594 102.364226)
      (xy 147.583698 102.366787)
      (xy 147.580662 102.369362)
      (xy 147.577541 102.371907)
      (xy 147.574386 102.374379)
      (xy 147.571253 102.376735)
      (xy 147.568195 102.37893)
      (xy 147.565265 102.380922)
      (xy 147.562516 102.382667)
      (xy 147.524443 102.405977)
      (xy 147.523595 102.406526)
      (xy 147.522777 102.407114)
      (xy 147.521989 102.407741)
      (xy 147.521233 102.408404)
      (xy 147.52051 102.409101)
      (xy 147.519818 102.40983)
      (xy 147.518536 102.41138)
      (xy 147.517391 102.413037)
      (xy 147.516388 102.41479)
      (xy 147.515533 102.416621)
      (xy 147.514829 102.418518)
      (xy 147.514281 102.420466)
      (xy 147.513896 102.422451)
      (xy 147.513676 102.424457)
      (xy 147.513627 102.426471)
      (xy 147.513754 102.428478)
      (xy 147.513884 102.429474)
      (xy 147.514061 102.430464)
      (xy 147.514284 102.431444)
      (xy 147.514553 102.432414)
      (xy 147.51487 102.433371)
      (xy 147.515236 102.434314)
      (xy 147.828925 103.192266)
      (xy 147.829333 103.193184)
      (xy 147.829781 103.194067)
      (xy 147.830267 103.194915)
      (xy 147.83079 103.195727)
      (xy 147.831348 103.196503)
      (xy 147.83194 103.197242)
      (xy 147.832564 103.197942)
      (xy 147.833219 103.198605)
      (xy 147.833903 103.199229)
      (xy 147.834614 103.199813)
      (xy 147.83535 103.200357)
      (xy 147.836111 103.20086)
      (xy 147.836894 103.201323)
      (xy 147.837699 103.201743)
      (xy 147.838522 103.202121)
      (xy 147.839363 103.202456)
      (xy 147.840221 103.202747)
      (xy 147.841093 103.202994)
      (xy 147.841977 103.203196)
      (xy 147.842873 103.203353)
      (xy 147.843779 103.203464)
      (xy 147.844693 103.203528)
      (xy 147.845614 103.203545)
      (xy 147.846539 103.203514)
      (xy 147.847468 103.203434)
      (xy 147.848399 103.203306)
      (xy 147.849329 103.203128)
      (xy 147.850258 103.2029)
      (xy 147.851185 103.202621)
      (xy 147.852106 103.202291)
      (xy 147.853021 103.201908)
      (xy 147.853929 103.201474)
      (xy 148.006064 103.120246)
      (xy 148.007868 103.119299)
      (xy 148.009787 103.118489)
      (xy 148.011803 103.117816)
      (xy 148.013899 103.11728)
      (xy 148.016059 103.116881)
      (xy 148.018266 103.116618)
      (xy 148.020501 103.116491)
      (xy 148.022749 103.116499)
      (xy 148.024993 103.116642)
      (xy 148.027214 103.11692)
      (xy 148.029397 103.117331)
      (xy 148.031525 103.117876)
      (xy 148.033579 103.118555)
      (xy 148.035544 103.119366)
      (xy 148.037402 103.120309)
      (xy 148.039137 103.121384)
      (xy 148.384101 103.35816)
      (xy 148.38495 103.358706)
      (xy 148.385824 103.35921)
      (xy 148.386721 103.359672)
      (xy 148.38764 103.360091)
      (xy 148.388577 103.360469)
      (xy 148.389532 103.360804)
      (xy 148.390503 103.361098)
      (xy 148.391487 103.36135)
      (xy 148.392483 103.36156)
      (xy 148.393488 103.36173)
      (xy 148.39552 103.361945)
      (xy 148.397567 103.361999)
      (xy 148.399615 103.36189)
      (xy 148.401648 103.361622)
      (xy 148.40365 103.361195)
      (xy 148.405606 103.360611)
      (xy 148.406561 103.360261)
      (xy 148.4075 103.359871)
      (xy 148.40842 103.359443)
      (xy 148.409318 103.358977)
      (xy 148.410193 103.358472)
      (xy 148.411044 103.35793)
      (xy 148.411867 103.357349)
      (xy 148.412662 103.356731)
      (xy 148.413426 103.356075)
      (xy 148.414157 103.355382)
      (xy 148.730731 103.03886)
      (xy 148.731427 103.038127)
      (xy 148.732085 103.03736)
      (xy 148.732705 103.036563)
      (xy 148.733288 103.035737)
      (xy 148.733832 103.034884)
      (xy 148.734339 103.034007)
      (xy 148.735236 103.032184)
      (xy 148.735978 103.030286)
      (xy 148.736563 103.028326)
      (xy 148.736991 103.026321)
      (xy 148.73726 103.024285)
      (xy 148.737368 103.022235)
      (xy 148.737314 103.020186)
      (xy 148.737096 103.018154)
      (xy 148.736714 103.016153)
      (xy 148.736166 103.0142)
      (xy 148.735829 103.013245)
      (xy 148.73545 103.012309)
      (xy 148.735028 103.011392)
      (xy 148.734565 103.010496)
      (xy 148.734058 103.009624)
      (xy 148.733509 103.008777)
      (xy 148.492527 102.657596)
      (xy 148.491435 102.655858)
      (xy 148.490462 102.65399)
      (xy 148.48961 102.652009)
      (xy 148.488879 102.649932)
      (xy 148.48827 102.647776)
      (xy 148.487785 102.645559)
      (xy 148.487426 102.643298)
      (xy 148.487192 102.64101)
      (xy 148.487086 102.638712)
      (xy 148.487109 102.636422)
      (xy 148.487261 102.634157)
      (xy 148.487545 102.631934)
      (xy 148.487961 102.629771)
      (xy 148.48851 102.627684)
      (xy 148.489194 102.625691)
      (xy 148.490013 102.623809)
      (xy 148.622464 102.292947)
      (xy 148.62279 102.291983)
      (xy 148.623162 102.291022)
      (xy 148.624038 102.289113)
      (xy 148.625078 102.287232)
      (xy 148.626269 102.285392)
      (xy 148.627599 102.283602)
      (xy 148.629055 102.281876)
      (xy 148.630622 102.280225)
      (xy 148.63229 102.27866)
      (xy 148.634044 102.277193)
      (xy 148.635871 102.275835)
      (xy 148.637759 102.274599)
      (xy 148.639694 102.273495)
      (xy 148.641664 102.272536)
      (xy 148.643656 102.271734)
      (xy 148.645656 102.271099)
      (xy 148.646656 102.270848)
      (xy 148.647652 102.270643)
      (xy 149.071911 102.191691)
      (xy 149.0729 102.191485)
      (xy 149.073876 102.191231)
      (xy 149.074839 102.190929)
      (xy 149.075786 102.190581)
      (xy 149.076718 102.190189)
      (xy 149.077631 102.189755)
      (xy 149.078526 102.18928)
      (xy 149.079401 102.188765)
      (xy 149.080255 102.188211)
      (xy 149.081086 102.187622)
      (xy 149.082677 102.186338)
      (xy 149.084163 102.184927)
      (xy 149.085534 102.1834)
      (xy 149.086781 102.181768)
      (xy 149.087894 102.180046)
      (xy 149.088863 102.178243)
      (xy 149.089678 102.176373)
      (xy 149.090024 102.175416)
      (xy 149.090329 102.174448)
      (xy 149.09059 102.173468)
      (xy 149.090806 102.172479)
      (xy 149.090976 102.171482)
      (xy 149.091099 102.170479)
      (xy 149.091174 102.169472)
      (xy 149.0912 102.168461)
      (xy 149.091226 101.720812)
      (xy 149.091201 101.719801)
      (xy 149.091126 101.718794)
      (xy 149.091003 101.717792)
      (xy 149.090833 101.716797)
      (xy 149.090618 101.71581)
      (xy 149.090357 101.714832)
      (xy 149.090054 101.713865)
      (xy 149.089708 101.712911)
      (xy 149.089321 101.711971)
      (xy 149.088895 101.711046)
      (xy 149.08843 101.710138)
      (xy 149.087928 101.709248)
      (xy 149.087389 101.708378)
      (xy 149.086816 101.70753)
      (xy 149.08621 101.706704)
      (xy 149.085571 101.705903)
      (xy 149.0849 101.705127)
      (xy 149.0842 101.704379)
      (xy 149.083471 101.703659)
      (xy 149.082715 101.702969)
      (xy 149.081932 101.702311)
      (xy 149.081125 101.701686)
      (xy 149.080293 101.701096)
      (xy 149.079439 101.700542)
      (xy 149.078563 101.700025)
      (xy 149.077668 101.699547)
      (xy 149.076753 101.69911)
      (xy 149.07582 101.698714)
      (xy 149.074872 101.698363)
      (xy 149.073907 101.698055)
      (xy 149.072929 101.697795)
      (xy 149.071938 101.697582)
      (xy 148.637016 101.616699)
      (xy 148.636016 101.616489)
      (xy 148.635013 101.616235)
      (xy 148.633001 101.615596)
      (xy 148.630994 101.614793)
      (xy 148.629005 101.613837)
      (xy 148.627046 101.61274)
      (xy 148.625131 101.611512)
      (xy 148.623273 101.610166)
      (xy 148.621485 101.608712)
      (xy 148.61978 101.607161)
      (xy 148.618171 101.605525)
      (xy 148.616671 101.603815)
      (xy 148.615294 101.602043)
      (xy 148.614053 101.600219)
      (xy 148.61296 101.598355)
      (xy 148.612028 101.596463)
      (xy 148.611627 101.595509)
      (xy 148.611272 101.594553)
      (xy 148.477922 101.283509)
      (xy 148.477063 101.281647)
      (xy 148.476341 101.279673)
      (xy 148.475756 101.277605)
      (xy 148.475305 101.27546)
      (xy 148.474989 101.273255)
      (xy 148.474804 101.271006)
      (xy 148.474752 101.268731)
      (xy 148.47483 101.266447)
      (xy 148.475037 101.26417)
      (xy 148.475372 101.261918)
      (xy 148.475834 101.259708)
      (xy 148.476422 101.257557)
      (xy 148.477135 101.255482)
      (xy 148.477972 101.253499)
      (xy 148.478931 101.251626)
      (xy 148.480012 101.24988)
      (xy 148.733456 100.880522)
      (xy 148.734008 100.879675)
      (xy 148.734516 100.878803)
      (xy 148.734982 100.877908)
      (xy 148.735404 100.876992)
      (xy 148.735785 100.876056)
      (xy 148.736123 100.875102)
      (xy 148.736418 100.874133)
      (xy 148.736672 100.87315)
      (xy 148.736885 100.872156)
      (xy 148.737055 100.871152)
      (xy 148.737272 100.869121)
      (xy 148.737326 100.867075)
      (xy 148.737217 100.865027)
      (xy 148.736947 100.862995)
      (xy 148.736517 100.860992)
      (xy 148.73593 100.859034)
      (xy 148.735578 100.858077)
      (xy 148.735187 100.857137)
      (xy 148.734757 100.856217)
      (xy 148.734288 100.855317)
      (xy 148.733781 100.85444)
      (xy 148.733236 100.853588)
      (xy 148.732653 100.852762)
      (xy 148.732032 100.851965)
      (xy 148.731374 100.851199)
      (xy 148.730678 100.850465)
      (xy 148.414131 100.533944)
      (xy 148.413399 100.533246)
      (xy 148.412635 100.532586)
      (xy 148.411841 100.531963)
      (xy 148.411017 100.531379)
      (xy 148.410167 100.530833)
      (xy 148.409292 100.530325)
      (xy 148.407474 100.529425)
      (xy 148.405579 100.528681)
      (xy 148.403623 100.528093)
      (xy 148.401621 100.527665)
      (xy 148.399589 100.527396)
      (xy 148.397541 100.527288)
      (xy 148.395493 100.527343)
      (xy 148.393462 100.527562)
      (xy 148.391461 100.527947)
      (xy 148.389506 100.528498)
      (xy 148.388551 100.528836)
      (xy 148.387613 100.529217)
      (xy 148.386695 100.52964)
      (xy 148.385797 100.530106)
      (xy 148.384923 100.530615)
      (xy 148.384074 100.531166)
      (xy 148.00826 100.789082)
      (xy 148.006526 100.790169)
      (xy 148.004661 100.791137)
      (xy 148.00268 100.791984)
      (xy 148.000603 100.792711)
      (xy 147.998447 100.793314)
      (xy 147.996228 100.793794)
      (xy 147.993964 100.794149)
      (xy 147.991674 100.794377)
      (xy 147.989374 100.794478)
      (xy 147.987082 100.79445)
      (xy 147.984815 100.794293)
      (xy 147.982591 100.794005)
      (xy 147.980427 100.793584)
      (xy 147.978341 100.79303)
      (xy 147.976351 100.792341)
      (xy 147.974473 100.791516)
      (xy 147.672927 100.668088)
      (xy 147.671008 100.667361)
      (xy 147.669107 100.666457)
      (xy 147.667236 100.665391)
      (xy 147.665406 100.664174)
      (xy 147.663628 100.662821)
      (xy 147.661914 100.661344)
      (xy 147.660274 100.659756)
      (xy 147.658719 100.65807)
      (xy 147.657261 100.6563)
      (xy 147.655911 100.654458)
      (xy 147.65468 100.652558)
      (xy 147.653579 100.650612)
      (xy 147.65262 100.648634)
      (xy 147.651813 100.646636)
      (xy 147.65117 100.644632)
      (xy 147.650702 100.642635)
      (xy 147.566988 100.192764)
      (xy 147.56678 100.191775)
      (xy 147.566523 100.190799)
      (xy 147.56622 100.189837)
      (xy 147.565872 100.188889)
      (xy 147.565479 100.187958)
      (xy 147.565045 100.187044)
      (xy 147.564569 100.186149)
      (xy 147.564055 100.185274)
      (xy 147.563502 100.184421)
      (xy 147.562914 100.183589)
      (xy 147.561633 100.181999)
      (xy 147.560226 100.180513)
      (xy 147.558703 100.179141)
      (xy 147.557077 100.177894)
      (xy 147.55536 100.176781)
      (xy 147.553563 100.175813)
      (xy 147.552639 100.175385)
      (xy 147.5517 100.174998)
      (xy 147.550746 100.174651)
      (xy 147.54978 100.174347)
      (xy 147.548804 100.174086)
      (xy 147.547818 100.17387)
      (xy 147.546824 100.173699)
      (xy 147.545824 100.173576)
      (xy 147.544819 100.173501)
      (xy 147.54381 100.173476)
      (xy 147.096136 100.173476)
    ) (layer "B.SilkS") (width 0.02) (fill solid) (tstamp a40bca6f-a20c-4158-b267-ee106446bae9))
  (gr_line (start 146.05 95.885) (end 148.59 95.885) (layer "Edge.Cuts") (width 0.05) (tstamp 10689bc7-98ce-4d99-95a7-3b83e71cef25))
  (gr_line (start 143.51 107.95) (end 143.51 98.425) (layer "Edge.Cuts") (width 0.05) (tstamp 1dd777d3-c7ab-40d1-82dc-88339d7f84fc))
  (gr_line (start 151.13 98.425) (end 151.13 107.95) (layer "Edge.Cuts") (width 0.05) (tstamp 1fbf2b76-3e9d-4efa-adc0-d78681e54c13))
  (gr_line (start 151.13 107.95) (end 143.51 107.95) (layer "Edge.Cuts") (width 0.05) (tstamp 70cc8523-5fdd-40a8-88ca-09dc0bf87e76))
  (gr_arc (start 143.51 98.425) (mid 144.253949 96.628949) (end 146.05 95.885) (layer "Edge.Cuts") (width 0.05) (tstamp 78f720d1-d2b4-42a4-87b4-139d87cd5322))
  (gr_arc (start 148.59 95.885) (mid 150.386051 96.628949) (end 151.13 98.425) (layer "Edge.Cuts") (width 0.05) (tstamp b43aa3e6-4501-4def-a8d9-011086ee3207))
  (gr_text "gitlab.com/vriska/\nsit1566-breakout" (at 147.32 104.648) (layer "B.SilkS") (tstamp e232bf29-b60f-4546-9920-0f0f5ade29c5)
    (effects (font (size 0.381 0.381) (thickness 0.0762)) (justify mirror))
  )
  (gr_text "OUT" (at 147.32 104.648) (layer "F.SilkS") (tstamp 2a9e49f4-b43b-4dbf-9b63-fc6254678726)
    (effects (font (size 0.762 0.762) (thickness 0.127)))
  )
  (gr_text "Vdd" (at 144.78 104.648) (layer "F.SilkS") (tstamp 62543d33-ca27-481d-8e2c-b5a7e4465322)
    (effects (font (size 0.762 0.762) (thickness 0.127)))
  )
  (gr_text "GND" (at 149.86 104.648) (layer "F.SilkS") (tstamp c0235d09-b9ce-4399-a681-e1b5b97fbff3)
    (effects (font (size 0.762 0.762) (thickness 0.127)))
  )

  (segment (start 146.82 104.64) (end 144.78 106.68) (width 0.1524) (layer "F.Cu") (net 1) (tstamp dc7b674b-dcf5-4f11-9ad9-e045e7e94fa0))
  (segment (start 146.82 101.805) (end 146.82 104.64) (width 0.1524) (layer "F.Cu") (net 1) (tstamp e1a440d1-7345-47c0-8e35-9beeab993047))
  (segment (start 147.32 101.805625) (end 147.32 106.68) (width 0.1524) (layer "F.Cu") (net 2) (tstamp 7d4caec5-fd83-4734-aafb-2ba888d0c472))
  (segment (start 146.82 101.395) (end 146.909375 101.395) (width 0.1524) (layer "F.Cu") (net 2) (tstamp 8826945a-1de6-455e-9d95-c02e9b2214c3))
  (segment (start 146.909375 101.395) (end 147.32 101.805625) (width 0.1524) (layer "F.Cu") (net 2) (tstamp fd906582-3b60-454f-9ac0-0f36f8ed9a7e))

  (zone (net 3) (net_name "GND") (layer "F.Cu") (tstamp 45d59d66-7c41-4453-9b96-67d2cc138158) (hatch edge 0.508)
    (connect_pads (clearance 0.127))
    (min_thickness 0.127) (filled_areas_thickness no)
    (fill yes (thermal_gap 0.127) (thermal_bridge_width 0.127))
    (polygon
      (pts
        (xy 151.892 108.712)
        (xy 142.748 108.712)
        (xy 142.748 95.123)
        (xy 151.892 95.123)
      )
    )
    (filled_polygon
      (layer "F.Cu")
      (pts
        (xy 146.76027 96.030806)
        (xy 146.778576 96.075)
        (xy 146.76027 96.119194)
        (xy 146.733567 96.135003)
        (xy 146.7044 96.143504)
        (xy 146.702303 96.144471)
        (xy 146.702297 96.144473)
        (xy 146.469906 96.251606)
        (xy 146.469902 96.251608)
        (xy 146.467794 96.25258)
        (xy 146.24991 96.395432)
        (xy 146.248187 96.39697)
        (xy 146.05726 96.567378)
        (xy 146.057257 96.567382)
        (xy 146.055534 96.568919)
        (xy 146.054057 96.570695)
        (xy 146.054053 96.570699)
        (xy 146.013701 96.619218)
        (xy 145.888936 96.769232)
        (xy 145.887737 96.771207)
        (xy 145.887734 96.771212)
        (xy 145.803266 96.910411)
        (xy 145.753775 96.991969)
        (xy 145.752881 96.994102)
        (xy 145.752879 96.994105)
        (xy 145.727535 97.054544)
        (xy 145.653022 97.232237)
        (xy 145.652452 97.23448)
        (xy 145.652451 97.234484)
        (xy 145.635656 97.300616)
        (xy 145.58889 97.484759)
        (xy 145.562787 97.743986)
        (xy 145.562898 97.7463)
        (xy 145.562898 97.746306)
        (xy 145.570251 97.899375)
        (xy 145.575287 98.004224)
        (xy 145.626116 98.259756)
        (xy 145.626896 98.261929)
        (xy 145.626897 98.261932)
        (xy 145.694426 98.450014)
        (xy 145.714156 98.504968)
        (xy 145.837474 98.734473)
        (xy 145.99336 98.94323)
        (xy 146.17839 99.126653)
        (xy 146.257988 99.185017)
        (xy 146.386632 99.279343)
        (xy 146.386638 99.279347)
        (xy 146.3885 99.280712)
        (xy 146.390549 99.28179)
        (xy 146.518677 99.349201)
        (xy 146.619073 99.402022)
        (xy 146.621252 99.402783)
        (xy 146.621259 99.402786)
        (xy 146.841873 99.479827)
        (xy 146.865044 99.487919)
        (xy 147.12101 99.536516)
        (xy 147.123324 99.536607)
        (xy 147.123325 99.536607)
        (xy 147.214775 99.5402)
        (xy 147.381347 99.546744)
        (xy 147.478692 99.536083)
        (xy 147.638037 99.518632)
        (xy 147.63804 99.518631)
        (xy 147.640336 99.51838)
        (xy 147.642572 99.517791)
        (xy 147.642579 99.51779)
        (xy 147.779863 99.481646)
        (xy 147.892289 99.452047)
        (xy 147.894424 99.45113)
        (xy 147.894429 99.451128)
        (xy 148.12954 99.350116)
        (xy 148.129543 99.350114)
        (xy 148.131669 99.349201)
        (xy 148.353218 99.212102)
        (xy 148.452536 99.128023)
        (xy 148.5503 99.04526)
        (xy 148.550303 99.045257)
        (xy 148.552069 99.043762)
        (xy 148.723853 98.847879)
        (xy 148.864798 98.628757)
        (xy 148.971806 98.391208)
        (xy 149.042526 98.140452)
        (xy 149.075406 97.881997)
        (xy 149.076306 97.847651)
        (xy 149.077774 97.791565)
        (xy 149.077815 97.79)
        (xy 149.058507 97.530178)
        (xy 149.001007 97.276065)
        (xy 148.906578 97.033241)
        (xy 148.777295 96.807042)
        (xy 148.629226 96.619218)
        (xy 148.617436 96.604262)
        (xy 148.617434 96.60426)
        (xy 148.615997 96.602437)
        (xy 148.580367 96.568919)
        (xy 148.427915 96.425507)
        (xy 148.426229 96.423921)
        (xy 148.38738 96.39697)
        (xy 148.214059 96.276733)
        (xy 148.214058 96.276733)
        (xy 148.212159 96.275415)
        (xy 147.978489 96.160182)
        (xy 147.898336 96.134525)
        (xy 147.861826 96.103617)
        (xy 147.857865 96.055946)
        (xy 147.888773 96.019436)
        (xy 147.91739 96.0125)
        (xy 148.564986 96.0125)
        (xy 148.581156 96.014628)
        (xy 148.59 96.016998)
        (xy 148.597948 96.014868)
        (xy 148.604667 96.014868)
        (xy 148.613833 96.013941)
        (xy 148.817205 96.026243)
        (xy 148.877024 96.029862)
        (xy 148.884516 96.030772)
        (xy 148.957705 96.044184)
        (xy 149.163633 96.081922)
        (xy 149.170952 96.083726)
        (xy 149.441879 96.16815)
        (xy 149.448922 96.170821)
        (xy 149.684251 96.276733)
        (xy 149.707701 96.287287)
        (xy 149.714384 96.290795)
        (xy 149.95722 96.437595)
        (xy 149.963431 96.441882)
        (xy 150.186809 96.616888)
        (xy 150.192458 96.621893)
        (xy 150.393107 96.822542)
        (xy 150.398112 96.828191)
        (xy 150.573118 97.051569)
        (xy 150.577405 97.05778)
        (xy 150.724205 97.300616)
        (xy 150.727713 97.307299)
        (xy 150.828023 97.530178)
        (xy 150.844177 97.566071)
        (xy 150.84685 97.573121)
        (xy 150.931273 97.844043)
        (xy 150.933078 97.851367)
        (xy 150.96109 98.004224)
        (xy 150.984228 98.130484)
        (xy 150.985138 98.137976)
        (xy 150.985288 98.140452)
        (xy 151.000457 98.391208)
        (xy 151.001059 98.401165)
        (xy 151.000132 98.410333)
        (xy 151.000132 98.417052)
        (xy 150.998002 98.425)
        (xy 151.000372 98.433844)
        (xy 151.0025 98.450014)
        (xy 151.0025 107.76)
        (xy 150.984194 107.804194)
        (xy 150.94 107.8225)
        (xy 143.7 107.8225)
        (xy 143.655806 107.804194)
        (xy 143.6375 107.76)
        (xy 143.6375 105.814943)
        (xy 143.7771 105.814943)
        (xy 143.777101 107.545056)
        (xy 143.785972 107.589658)
        (xy 143.819766 107.640234)
        (xy 143.870342 107.674028)
        (xy 143.914943 107.6829)
        (xy 144.779859 107.6829)
        (xy 145.645056 107.682899)
        (xy 145.648065 107.6823)
        (xy 145.64807 107.6823)
        (xy 145.68362 107.675229)
        (xy 145.689658 107.674028)
        (xy 145.740234 107.640234)
        (xy 145.774028 107.589658)
        (xy 145.7829 107.545057)
        (xy 145.782899 106.026985)
        (xy 145.801205 105.982791)
        (xy 146.976608 104.807389)
        (xy 146.978982 104.805136)
        (xy 146.98658 104.798295)
        (xy 147.031672 104.782328)
        (xy 147.074847 104.802922)
        (xy 147.0909 104.844742)
        (xy 147.0909 105.655192)
        (xy 147.072594 105.699386)
        (xy 147.046047 105.715149)
        (xy 146.942489 105.745628)
        (xy 146.768192 105.836748)
        (xy 146.614912 105.959988)
        (xy 146.488489 106.110653)
        (xy 146.393739 106.283004)
        (xy 146.334269 106.470476)
        (xy 146.333928 106.473514)
        (xy 146.333928 106.473515)
        (xy 146.31789 106.6165)
        (xy 146.312345 106.66593)
        (xy 146.315742 106.706385)
        (xy 146.319895 106.755834)
        (xy 146.328803 106.861919)
        (xy 146.383015 107.050979)
        (xy 146.472916 107.225908)
        (xy 146.595083 107.380044)
        (xy 146.597407 107.382022)
        (xy 146.597409 107.382024)
        (xy 146.717421 107.484162)
        (xy 146.744862 107.507516)
        (xy 146.916547 107.603467)
        (xy 146.919451 107.604411)
        (xy 146.919452 107.604411)
        (xy 147.100687 107.663298)
        (xy 147.100692 107.663299)
        (xy 147.1036 107.664244)
        (xy 147.298895 107.687532)
        (xy 147.301937 107.687298)
        (xy 147.30194 107.687298)
        (xy 147.491946 107.672678)
        (xy 147.491951 107.672677)
        (xy 147.494994 107.672443)
        (xy 147.506064 107.669352)
        (xy 147.681489 107.620373)
        (xy 147.681493 107.620372)
        (xy 147.684428 107.619552)
        (xy 147.743608 107.589658)
        (xy 147.857261 107.532248)
        (xy 147.859981 107.530874)
        (xy 147.862379 107.529001)
        (xy 147.862383 107.528998)
        (xy 147.943246 107.46582)
        (xy 148.014966 107.409786)
        (xy 148.03893 107.382024)
        (xy 148.065259 107.35152)
        (xy 148.14348 107.260901)
        (xy 148.240628 107.08989)
        (xy 148.30271 106.903266)
        (xy 148.307563 106.864855)
        (xy 148.321587 106.753836)
        (xy 148.88572 106.753836)
        (xy 148.894145 106.854178)
        (xy 148.895243 106.860157)
        (xy 148.946371 107.038462)
        (xy 148.948608 107.044112)
        (xy 149.033401 107.209101)
        (xy 149.036686 107.214198)
        (xy 149.151907 107.35957)
        (xy 149.156135 107.363948)
        (xy 149.297386 107.484162)
        (xy 149.302382 107.487634)
        (xy 149.464301 107.578128)
        (xy 149.469872 107.580562)
        (xy 149.646276 107.63788)
        (xy 149.652233 107.639189)
        (xy 149.784156 107.65492)
        (xy 149.793315 107.652345)
        (xy 149.7965 107.646671)
        (xy 149.7965 107.642613)
        (xy 149.9235 107.642613)
        (xy 149.926599 107.650093)
        (xy 149.937144 107.653994)
        (xy 150.027424 107.647047)
        (xy 150.033422 107.645989)
        (xy 150.212073 107.596109)
        (xy 150.217744 107.59391)
        (xy 150.383316 107.510274)
        (xy 150.388438 107.507024)
        (xy 150.534611 107.392819)
        (xy 150.539015 107.388626)
        (xy 150.660214 107.248214)
        (xy 150.663725 107.243237)
        (xy 150.75534 107.081966)
        (xy 150.757817 107.076402)
        (xy 150.816367 106.900395)
        (xy 150.817713 106.894471)
        (xy 150.835227 106.755834)
        (xy 150.832716 106.746656)
        (xy 150.827183 106.7435)
        (xy 149.935931 106.7435)
        (xy 149.927141 106.747141)
        (xy 149.9235 106.755931)
        (xy 149.9235 107.642613)
        (xy 149.7965 107.642613)
        (xy 149.7965 106.755931)
        (xy 149.792859 106.747141)
        (xy 149.784069 106.7435)
        (xy 148.897283 106.7435)
        (xy 148.888493 106.747141)
        (xy 148.88572 106.753836)
        (xy 148.321587 106.753836)
        (xy 148.32714 106.70988)
        (xy 148.32714 106.709879)
        (xy 148.32736 106.708138)
        (xy 148.327753 106.68)
        (xy 148.326673 106.668977)
        (xy 148.320316 106.604145)
        (xy 148.88534 106.604145)
        (xy 148.887979 106.613289)
        (xy 148.893796 106.6165)
        (xy 149.784069 106.6165)
        (xy 149.792859 106.612859)
        (xy 149.7965 106.604069)
        (xy 149.9235 106.604069)
        (xy 149.927141 106.612859)
        (xy 149.935931 106.6165)
        (xy 150.82307 106.6165)
        (xy 150.83186 106.612859)
        (xy 150.834515 106.606448)
        (xy 150.823328 106.492356)
        (xy 150.822147 106.486391)
        (xy 150.768534 106.308815)
        (xy 150.766218 106.303196)
        (xy 150.679136 106.139419)
        (xy 150.67577 106.134354)
        (xy 150.558537 105.990611)
        (xy 150.554248 105.986292)
        (xy 150.411332 105.868061)
        (xy 150.406283 105.864656)
        (xy 150.243129 105.776439)
        (xy 150.237511 105.774077)
        (xy 150.060319 105.719227)
        (xy 150.05437 105.718006)
        (xy 149.935862 105.70555)
        (xy 149.926741 105.708252)
        (xy 149.9235 105.714222)
        (xy 149.9235 106.604069)
        (xy 149.7965 106.604069)
        (xy 149.7965 105.717131)
        (xy 149.792859 105.708341)
        (xy 149.786308 105.705628)
        (xy 149.679088 105.715385)
        (xy 149.673109 105.716525)
        (xy 149.495167 105.768897)
        (xy 149.489535 105.771173)
        (xy 149.325146 105.857112)
        (xy 149.320065 105.860438)
        (xy 149.175504 105.976668)
        (xy 149.171156 105.980926)
        (xy 149.051933 106.123011)
        (xy 149.048489 106.128041)
        (xy 148.959133 106.290577)
        (xy 148.956735 106.296174)
        (xy 148.90065 106.472974)
        (xy 148.899386 106.478919)
        (xy 148.88534 106.604145)
        (xy 148.320316 106.604145)
        (xy 148.308859 106.4873)
        (xy 148.308561 106.48426)
        (xy 148.251714 106.295975)
        (xy 148.159379 106.122318)
        (xy 148.035072 105.969903)
        (xy 147.883528 105.844535)
        (xy 147.880839 105.843081)
        (xy 147.880836 105.843079)
        (xy 147.757472 105.776377)
        (xy 147.71052 105.75099)
        (xy 147.593118 105.714648)
        (xy 147.556314 105.684092)
        (xy 147.5491 105.654943)
        (xy 147.5491 102.022652)
        (xy 147.697299 102.022652)
        (xy 147.69927 102.027409)
        (xy 147.716555 102.038958)
        (xy 147.727713 102.04358)
        (xy 147.813962 102.060736)
        (xy 147.826038 102.060736)
        (xy 147.912287 102.04358)
        (xy 147.923445 102.038958)
        (xy 147.937512 102.029559)
        (xy 147.942799 102.021647)
        (xy 147.941795 102.016597)
        (xy 147.828791 101.903594)
        (xy 147.82 101.899952)
        (xy 147.811209 101.903594)
        (xy 147.70094 102.013862)
        (xy 147.697299 102.022652)
        (xy 147.5491 102.022652)
        (xy 147.5491 101.989883)
        (xy 147.567406 101.945689)
        (xy 147.599408 101.928584)
        (xy 147.608403 101.926795)
        (xy 147.721406 101.813791)
        (xy 147.725048 101.805)
        (xy 147.721407 101.79621)
        (xy 147.6985 101.773303)
        (xy 147.680194 101.729109)
        (xy 147.6985 101.684915)
        (xy 147.742694 101.666609)
        (xy 147.764075 101.67038)
        (xy 147.768522 101.671999)
        (xy 147.791334 101.686533)
        (xy 147.811208 101.706406)
        (xy 147.82 101.710048)
        (xy 147.828792 101.706406)
        (xy 147.848666 101.686533)
        (xy 147.871478 101.671999)
        (xy 147.875925 101.67038)
        (xy 147.923715 101.672463)
        (xy 147.956035 101.707728)
        (xy 147.953952 101.755518)
        (xy 147.9415 101.773303)
        (xy 147.918593 101.79621)
        (xy 147.914952 101.805)
        (xy 147.918594 101.813791)
        (xy 148.028862 101.92406)
        (xy 148.037652 101.927701)
        (xy 148.042409 101.92573)
        (xy 148.053958 101.908445)
        (xy 148.05858 101.897287)
        (xy 148.075736 101.811038)
        (xy 148.075736 101.798962)
        (xy 148.05858 101.712713)
        (xy 148.053958 101.701555)
        (xy 148.044559 101.687487)
        (xy 148.035453 101.681402)
        (xy 148.008879 101.641627)
        (xy 148.018212 101.594711)
        (xy 148.030005 101.581557)
        (xy 148.031051 101.58068)
        (xy 148.036168 101.576386)
        (xy 148.085169 101.491514)
        (xy 148.102187 101.395)
        (xy 148.085169 101.298486)
        (xy 148.036168 101.213614)
        (xy 147.961094 101.150619)
        (xy 147.955955 101.148749)
        (xy 147.955954 101.148748)
        (xy 147.915048 101.13386)
        (xy 147.869001 101.1171)
        (xy 147.770999 101.1171)
        (xy 147.678907 101.150619)
        (xy 147.603832 101.213614)
        (xy 147.554831 101.298486)
        (xy 147.537813 101.395)
        (xy 147.554831 101.491514)
        (xy 147.603832 101.576386)
        (xy 147.608019 101.579899)
        (xy 147.608021 101.579901)
        (xy 147.608949 101.58068)
        (xy 147.609398 101.581542)
        (xy 147.611535 101.584089)
        (xy 147.61097 101.584563)
        (xy 147.631036 101.623111)
        (xy 147.616651 101.668732)
        (xy 147.592693 101.686299)
        (xy 147.583177 101.690241)
        (xy 147.535342 101.690242)
        (xy 147.515064 101.676693)
        (xy 147.498225 101.659854)
        (xy 147.491856 101.652397)
        (xy 147.480583 101.636881)
        (xy 147.476722 101.631567)
        (xy 147.471037 101.628285)
        (xy 147.471035 101.628283)
        (xy 147.467795 101.626413)
        (xy 147.454851 101.61648)
        (xy 147.076765 101.238393)
        (xy 147.074513 101.23602)
        (xy 147.05144 101.210395)
        (xy 147.047045 101.205514)
        (xy 147.02352 101.19504)
        (xy 147.014912 101.190366)
        (xy 147.003602 101.183022)
        (xy 146.99331 101.176338)
        (xy 146.993595 101.175898)
        (xy 146.985626 101.171204)
        (xy 146.965284 101.154135)
        (xy 146.965285 101.154135)
        (xy 146.961094 101.150619)
        (xy 146.955955 101.148749)
        (xy 146.955954 101.148748)
        (xy 146.915048 101.13386)
        (xy 146.869001 101.1171)
        (xy 146.770999 101.1171)
        (xy 146.678907 101.150619)
        (xy 146.603832 101.213614)
        (xy 146.554831 101.298486)
        (xy 146.537813 101.395)
        (xy 146.554831 101.491514)
        (xy 146.585169 101.544061)
        (xy 146.599423 101.56875)
        (xy 146.605666 101.616176)
        (xy 146.599423 101.63125)
        (xy 146.554831 101.708486)
        (xy 146.537813 101.805)
        (xy 146.554831 101.901514)
        (xy 146.558833 101.908445)
        (xy 146.582527 101.949485)
        (xy 146.5909 101.980735)
        (xy 146.5909 104.519216)
        (xy 146.572594 104.56341)
        (xy 145.477209 105.658794)
        (xy 145.433015 105.6771)
        (xy 144.078675 105.677101)
        (xy 143.914944 105.677101)
        (xy 143.911935 105.6777)
        (xy 143.91193 105.6777)
        (xy 143.879794 105.684092)
        (xy 143.870342 105.685972)
        (xy 143.819766 105.719766)
        (xy 143.785972 105.770342)
        (xy 143.7771 105.814943)
        (xy 143.6375 105.814943)
        (xy 143.6375 98.450014)
        (xy 143.639628 98.433844)
        (xy 143.641998 98.425)
        (xy 143.639868 98.417052)
        (xy 143.639868 98.410333)
        (xy 143.638941 98.401165)
        (xy 143.639544 98.391208)
        (xy 143.654712 98.140452)
        (xy 143.654862 98.137976)
        (xy 143.655772 98.130484)
        (xy 143.67891 98.004224)
        (xy 143.706922 97.851367)
        (xy 143.708727 97.844043)
        (xy 143.79315 97.573121)
        (xy 143.795823 97.566071)
        (xy 143.811978 97.530178)
        (xy 143.912287 97.307299)
        (xy 143.915795 97.300616)
        (xy 144.062595 97.05778)
        (xy 144.066882 97.051569)
        (xy 144.241888 96.828191)
        (xy 144.246893 96.822542)
        (xy 144.447542 96.621893)
        (xy 144.453191 96.616888)
        (xy 144.676569 96.441882)
        (xy 144.68278 96.437595)
        (xy 144.925616 96.290795)
        (xy 144.932299 96.287287)
        (xy 144.955749 96.276733)
        (xy 145.191078 96.170821)
        (xy 145.198121 96.16815)
        (xy 145.469048 96.083726)
        (xy 145.476367 96.081922)
        (xy 145.682295 96.044184)
        (xy 145.755484 96.030772)
        (xy 145.762976 96.029862)
        (xy 145.822795 96.026243)
        (xy 146.026167 96.013941)
        (xy 146.035333 96.014868)
        (xy 146.042052 96.014868)
        (xy 146.05 96.016998)
        (xy 146.058844 96.014628)
        (xy 146.075014 96.0125)
        (xy 146.716076 96.0125)
      )
    )
  )
  (group "" (id b0c6e436-9f81-464b-a607-19de8385ba74)
    (members
      a40bca6f-a20c-4158-b267-ee106446bae9
    )
  )
)
